Error at line 6: The call to: 'del' does not have the correct type of parameters!
Error at line 7: The call to: 'del' does not have the correct type of parameters!
Error at line 8: The call to: 'del' does not have the correct type of parameters!
